[
    {
        "id": 1,
        "name": "André Moreira",
        "email": "andre.mcx1@gmail.com",
        "created_at": "2021-04-17T01:55:05.000000Z",
        "updated_at": "2021-04-17T01:55:05.000000Z"
    },
    {
        "id": 2,
        "name": "Rosamond Rosenbaum",
        "email": "dtrantow@example.com",
        "created_at": "2021-04-17T02:04:33.000000Z",
        "updated_at": "2021-04-17T02:04:33.000000Z"
    }
]
