{
    "data": {
        "conta_pagar_id": 2,
        "descricao": "sit nostrum",
        "valor": 180.91,
        "paga_em": null,
        "created_at": "2021-04-19T03:54:49.000000Z",
        "updated_at": "2021-04-19T03:54:49.000000Z",
        "historico": [
            {
                "conta_pagar_historico_id": 13,
                "users_id": 1,
                "users_name": "André Moreira",
                "is_liquidacao": true,
                "created_at": "2021-04-21T22:43:16.000000Z",
                "updated_at": "2021-04-21T22:43:16.000000Z"
            },
            {
                "conta_pagar_historico_id": 14,
                "users_id": 1,
                "users_name": "André Moreira",
                "is_liquidacao": false,
                "created_at": "2021-04-21T22:44:23.000000Z",
                "updated_at": "2021-04-21T22:44:23.000000Z"
            }
        ]
    }
}
