{
    "data": [
        {
            "conta_pagar_id": 1,
            "descricao": "CONTA DE ENERGIA",
            "valor": 41.93,
            "paga_em": null,
            "created_at": "2021-04-19T03:44:03.000000Z",
            "updated_at": "2021-04-19T03:44:03.000000Z",
            "historico": [
                {
                    "conta_pagar_historico_id": 13,
                    "users_id": 1,
                    "users_name": "André Moreira",
                    "is_liquidacao": true,
                    "created_at": "2021-04-21T22:43:16.000000Z",
                    "updated_at": "2021-04-21T22:43:16.000000Z"
                },
                {
                    "conta_pagar_historico_id": 14,
                    "users_id": 1,
                    "users_name": "André Moreira",
                    "is_liquidacao": false,
                    "created_at": "2021-04-21T22:44:23.000000Z",
                    "updated_at": "2021-04-21T22:44:23.000000Z"
                }
            ]
        },
        {
            "conta_pagar_id": 2,
            "descricao": "CONTA DE TELEFONE",
            "valor": 180.91,
            "paga_em": null,
            "created_at": "2021-04-19T03:54:49.000000Z",
            "updated_at": "2021-04-19T03:54:49.000000Z",
            "historico": []
        }
    ],
    "links": {
        "first": "http:\/\/localhost\/api\/conta-pagar?page=1",
        "last": "http:\/\/localhost\/api\/conta-pagar?page=1",
        "prev": null,
        "next": null
    },
    "meta": {
        "current_page": 1,
        "from": 1,
        "last_page": 1,
        "links": [
            {
                "url": null,
                "label": "&laquo; Anterior",
                "active": false
            },
            {
                "url": "http:\/\/localhost\/api\/conta-pagar?page=1",
                "label": "1",
                "active": true
            },
            {
                "url": null,
                "label": "Próximo &raquo;",
                "active": false
            }
        ],
        "path": "http:\/\/localhost\/api\/conta-pagar",
        "per_page": 5,
        "to": 2,
        "total": 2
    }
}
